module gitlab.com/Kirill-Znamenskiy/kztest

go 1.19

require github.com/stretchr/testify v1.3.0

require (
	github.com/davecgh/go-spew v1.1.1 // indirect
	github.com/pmezard/go-difflib v1.0.0 // indirect
)
